{
  "dependencies": {
    "less": {
      "version": "https://github.com/meteor/less.js/tarball/8130849eb3d7f0ecf0ca8d0af7c4207b0442e3f6",
      "dependencies": {
        "errno": {
          "version": "http://registry.cnpmjs.org/errno/download/errno-0.1.4.tgz",
          "dependencies": {
            "prr": {
              "version": "http://registry.cnpmjs.org/prr/download/prr-0.0.0.tgz"
            }
          }
        },
        "graceful-fs": {
          "version": "http://registry.cnpmjs.org/graceful-fs/download/graceful-fs-3.0.8.tgz"
        },
        "image-size": {
          "version": "http://registry.cnpmjs.org/image-size/download/image-size-0.3.5.tgz"
        },
        "mime": {
          "version": "http://registry.cnpmjs.org/mime/download/mime-1.3.4.tgz"
        },
        "mkdirp": {
          "version": "http://registry.cnpmjs.org/mkdirp/download/mkdirp-0.5.1.tgz",
          "dependencies": {
            "minimist": {
              "version": "http://registry.cnpmjs.org/minimist/download/minimist-0.0.8.tgz"
            }
          }
        },
        "promise": {
          "version": "http://registry.cnpmjs.org/promise/download/promise-6.1.0.tgz",
          "dependencies": {
            "asap": {
              "version": "http://registry.cnpmjs.org/asap/download/asap-1.0.0.tgz"
            }
          }
        },
        "request": {
          "version": "http://registry.cnpmjs.org/request/download/request-2.65.0.tgz",
          "dependencies": {
            "bl": {
              "version": "http://registry.cnpmjs.org/bl/download/bl-1.0.0.tgz",
              "dependencies": {
                "readable-stream": {
                  "version": "http://registry.cnpmjs.org/readable-stream/download/readable-stream-2.0.4.tgz",
                  "dependencies": {
                    "core-util-is": {
                      "version": "http://registry.cnpmjs.org/core-util-is/download/core-util-is-1.0.1.tgz"
                    },
                    "inherits": {
                      "version": "http://registry.cnpmjs.org/inherits/download/inherits-2.0.1.tgz"
                    },
                    "isarray": {
                      "version": "http://registry.cnpmjs.org/isarray/download/isarray-0.0.1.tgz"
                    },
                    "process-nextick-args": {
                      "version": "http://registry.cnpmjs.org/process-nextick-args/download/process-nextick-args-1.0.3.tgz"
                    },
                    "string_decoder": {
                      "version": "http://registry.cnpmjs.org/string_decoder/download/string_decoder-0.10.31.tgz"
                    },
                    "util-deprecate": {
                      "version": "http://registry.cnpmjs.org/util-deprecate/download/util-deprecate-1.0.2.tgz"
                    }
                  }
                }
              }
            },
            "caseless": {
              "version": "http://registry.cnpmjs.org/caseless/download/caseless-0.11.0.tgz"
            },
            "extend": {
              "version": "http://registry.cnpmjs.org/extend/download/extend-3.0.0.tgz"
            },
            "forever-agent": {
              "version": "http://registry.cnpmjs.org/forever-agent/download/forever-agent-0.6.1.tgz"
            },
            "form-data": {
              "version": "http://registry.cnpmjs.org/form-data/download/form-data-1.0.0-rc3.tgz",
              "dependencies": {
                "async": {
                  "version": "http://registry.cnpmjs.org/async/download/async-1.5.0.tgz"
                }
              }
            },
            "json-stringify-safe": {
              "version": "http://registry.cnpmjs.org/json-stringify-safe/download/json-stringify-safe-5.0.1.tgz"
            },
            "mime-types": {
              "version": "http://registry.cnpmjs.org/mime-types/download/mime-types-2.1.7.tgz",
              "dependencies": {
                "mime-db": {
                  "version": "http://registry.cnpmjs.org/mime-db/download/mime-db-1.19.0.tgz"
                }
              }
            },
            "node-uuid": {
              "version": "http://registry.cnpmjs.org/node-uuid/download/node-uuid-1.4.7.tgz"
            },
            "qs": {
              "version": "http://registry.cnpmjs.org/qs/download/qs-5.2.0.tgz"
            },
            "tunnel-agent": {
              "version": "http://registry.cnpmjs.org/tunnel-agent/download/tunnel-agent-0.4.1.tgz"
            },
            "tough-cookie": {
              "version": "http://registry.cnpmjs.org/tough-cookie/download/tough-cookie-2.2.1.tgz"
            },
            "http-signature": {
              "version": "http://registry.cnpmjs.org/http-signature/download/http-signature-0.11.0.tgz",
              "dependencies": {
                "assert-plus": {
                  "version": "http://registry.cnpmjs.org/assert-plus/download/assert-plus-0.1.5.tgz"
                },
                "asn1": {
                  "version": "http://registry.cnpmjs.org/asn1/download/asn1-0.1.11.tgz"
                },
                "ctype": {
                  "version": "http://registry.cnpmjs.org/ctype/download/ctype-0.5.3.tgz"
                }
              }
            },
            "oauth-sign": {
              "version": "http://registry.cnpmjs.org/oauth-sign/download/oauth-sign-0.8.0.tgz"
            },
            "hawk": {
              "version": "http://registry.cnpmjs.org/hawk/download/hawk-3.1.1.tgz",
              "dependencies": {
                "hoek": {
                  "version": "http://registry.cnpmjs.org/hoek/download/hoek-2.16.3.tgz"
                },
                "boom": {
                  "version": "http://registry.cnpmjs.org/boom/download/boom-2.10.1.tgz"
                },
                "cryptiles": {
                  "version": "http://registry.cnpmjs.org/cryptiles/download/cryptiles-2.0.5.tgz"
                },
                "sntp": {
                  "version": "http://registry.cnpmjs.org/sntp/download/sntp-1.0.9.tgz"
                }
              }
            },
            "aws-sign2": {
              "version": "http://registry.cnpmjs.org/aws-sign2/download/aws-sign2-0.6.0.tgz"
            },
            "stringstream": {
              "version": "http://registry.cnpmjs.org/stringstream/download/stringstream-0.0.5.tgz"
            },
            "combined-stream": {
              "version": "http://registry.cnpmjs.org/combined-stream/download/combined-stream-1.0.5.tgz",
              "dependencies": {
                "delayed-stream": {
                  "version": "http://registry.cnpmjs.org/delayed-stream/download/delayed-stream-1.0.0.tgz"
                }
              }
            },
            "isstream": {
              "version": "http://registry.cnpmjs.org/isstream/download/isstream-0.1.2.tgz"
            },
            "har-validator": {
              "version": "http://registry.cnpmjs.org/har-validator/download/har-validator-2.0.2.tgz",
              "dependencies": {
                "chalk": {
                  "version": "http://registry.cnpmjs.org/chalk/download/chalk-1.1.1.tgz",
                  "dependencies": {
                    "ansi-styles": {
                      "version": "http://registry.cnpmjs.org/ansi-styles/download/ansi-styles-2.1.0.tgz"
                    },
                    "escape-string-regexp": {
                      "version": "http://registry.cnpmjs.org/escape-string-regexp/download/escape-string-regexp-1.0.3.tgz"
                    },
                    "has-ansi": {
                      "version": "http://registry.cnpmjs.org/has-ansi/download/has-ansi-2.0.0.tgz",
                      "dependencies": {
                        "ansi-regex": {
                          "version": "http://registry.cnpmjs.org/ansi-regex/download/ansi-regex-2.0.0.tgz"
                        }
                      }
                    },
                    "strip-ansi": {
                      "version": "http://registry.cnpmjs.org/strip-ansi/download/strip-ansi-3.0.0.tgz",
                      "dependencies": {
                        "ansi-regex": {
                          "version": "http://registry.cnpmjs.org/ansi-regex/download/ansi-regex-2.0.0.tgz"
                        }
                      }
                    },
                    "supports-color": {
                      "version": "http://registry.cnpmjs.org/supports-color/download/supports-color-2.0.0.tgz"
                    }
                  }
                },
                "commander": {
                  "version": "http://registry.cnpmjs.org/commander/download/commander-2.9.0.tgz",
                  "dependencies": {
                    "graceful-readlink": {
                      "version": "http://registry.cnpmjs.org/graceful-readlink/download/graceful-readlink-1.0.1.tgz"
                    }
                  }
                },
                "is-my-json-valid": {
                  "version": "http://registry.cnpmjs.org/is-my-json-valid/download/is-my-json-valid-2.12.3.tgz",
                  "dependencies": {
                    "generate-function": {
                      "version": "http://registry.cnpmjs.org/generate-function/download/generate-function-2.0.0.tgz"
                    },
                    "generate-object-property": {
                      "version": "http://registry.cnpmjs.org/generate-object-property/download/generate-object-property-1.2.0.tgz",
                      "dependencies": {
                        "is-property": {
                          "version": "http://registry.cnpmjs.org/is-property/download/is-property-1.0.2.tgz"
                        }
                      }
                    },
                    "jsonpointer": {
                      "version": "http://registry.cnpmjs.org/jsonpointer/download/jsonpointer-2.0.0.tgz"
                    },
                    "xtend": {
                      "version": "http://registry.cnpmjs.org/xtend/download/xtend-4.0.1.tgz"
                    }
                  }
                },
                "pinkie-promise": {
                  "version": "http://registry.cnpmjs.org/pinkie-promise/download/pinkie-promise-1.0.0.tgz",
                  "dependencies": {
                    "pinkie": {
                      "version": "http://registry.cnpmjs.org/pinkie/download/pinkie-1.0.0.tgz"
                    }
                  }
                }
              }
            }
          }
        },
        "source-map": {
          "version": "http://registry.cnpmjs.org/source-map/download/source-map-0.4.4.tgz",
          "dependencies": {
            "amdefine": {
              "version": "http://registry.cnpmjs.org/amdefine/download/amdefine-1.0.0.tgz"
            }
          }
        }
      }
    },
    "less-plugin-autoprefix": {
      "version": "http://registry.cnpmjs.org/less-plugin-autoprefix/download/less-plugin-autoprefix-1.4.2.tgz",
      "dependencies": {
        "autoprefixer-core": {
          "version": "http://registry.cnpmjs.org/autoprefixer-core/download/autoprefixer-core-5.2.1.tgz",
          "dependencies": {
            "browserslist": {
              "version": "http://registry.cnpmjs.org/browserslist/download/browserslist-0.4.0.tgz"
            },
            "num2fraction": {
              "version": "http://registry.cnpmjs.org/num2fraction/download/num2fraction-1.2.2.tgz"
            },
            "caniuse-db": {
              "version": "http://registry.cnpmjs.org/caniuse-db/download/caniuse-db-1.0.30000362.tgz"
            }
          }
        },
        "postcss": {
          "version": "http://registry.cnpmjs.org/postcss/download/postcss-4.1.16.tgz",
          "dependencies": {
            "es6-promise": {
              "version": "http://registry.cnpmjs.org/es6-promise/download/es6-promise-2.3.0.tgz"
            },
            "source-map": {
              "version": "http://registry.cnpmjs.org/source-map/download/source-map-0.4.4.tgz",
              "dependencies": {
                "amdefine": {
                  "version": "http://registry.cnpmjs.org/amdefine/download/amdefine-1.0.0.tgz"
                }
              }
            },
            "js-base64": {
              "version": "http://registry.cnpmjs.org/js-base64/download/js-base64-2.1.9.tgz"
            }
          }
        }
      }
    }
  }
}
